{
    "title": "A girlfriend who can't be (cuckolded) by Zettai",
    "language": "🇯🇵",
    "rating": "⭐⭐⭐⭐⭐",
    "circle": "Fetish list",
    "type": "Voice / ASMR",
    "tags": ["Netorare / Cuckoldry"]
}