{
    "title": "~ Bunny girl sister's sweet breath & healing & sex for you who are busy every day ♪",
    "language": "🇯🇵",
    "rating": "⭐⭐⭐⭐⭐",
    "circle": "CLIP_CRAFT_PLUS",
    "type": "Voice / ASMR",
    "tags": ["Binaural ASMR", "Bunny Girl"]
}