{
    "title": "Pussy Mama Who Lends Her Body as a Faphole",
    "language": "🇯🇵",
    "rating": "⭐⭐⭐⭐⭐",
    "circle": "Ingohigo ",
    "type": "Voice / ASMR",
    "tags": ["Breasts", "Dirty Talk", "MILF", "Lovey Dovey / Sweet Love", "Internal Cumshot", "Breast Sex"]
}