{
    "title": "[Binaural voice] and Maid",
    "language": "🇯🇵",
    "rating": "⭐⭐⭐⭐⭐",
    "circle": "Moon_Fish",
    "type": "Voice / ASMR",
    "tags": ["Binaural", "Maid", "Lovey Dovey / Sweet Love", "Elder Girl", "Verbal Humiliation", "Tease", "Reverse Rape", "Anal"]
}