{
    "title": "I want to love you in another world!",
    "language": "🇯🇵",
    "rating": "⭐⭐⭐⭐⭐",
    "circle": "White Bird",
    "type": "Voice / ASMR",
    "tags": ["Binaural ASMR", "Whispering", "Tease", "Tsundere"]
}