{
    "title": "Seedbed Tentacle User and Boy《Hypnotic Voice》",
    "language": "🇯🇵",
    "rating": "⭐⭐⭐⭐⭐",
    "circle": "Hypnotic_Yanh",
    "type": "Voice / ASMR",
    "tags": ["Binaural ASMR", "Tentacle"]
}