{
    "title": "Nipple Torture Duty",
    "language": "🇯🇵",
    "rating": "⭐⭐⭐⭐⭐",
    "circle": "Euphoria Factory",
    "type": "Voice / ASMR",
    "tags": ["No Reverse", "Binaural", "Gal", "Masturbation", "Verbal Humiliation", "Submissive Man", "Ear Licking", "Nipples / Areola"]
}