{
    "title": "Defeated by Monsters, Lost All Money!",
    "language": "🇯🇵",
    "rating": "⭐⭐⭐⭐⭐",
    "circle": "Ore-toku Voice factory",
    "type": "Voice / ASMR",
    "tags": ["Binaural ASMR", "Bunny Girl"]
}