[
    {
        "title": "Hypnosis Nyo Nanny 2; Tentacle Brainwashing",
        "language": "🇯🇵",
        "rating": "⭐⭐⭐⭐⭐",
        "circle": "Furo Ido Soft",
        "type": "Voice / ASMR",
        "tags": [
            "Binaural ASMR",
            "Tentacle"
        ],
        "files": [
            "https://gitlab.com/d0g/radio/-/raw/master/tentacle/1/1.mp3"
        ],
        "poster": "https://radio.merahputih.moe/tentacle/1/RJ067375_img_main.webp"
    },
    {
        "title": "Tentacled Capsule 3: 10-day Imprisonment",
        "language": "🇯🇵",
        "rating": "⭐⭐⭐⭐⭐",
        "circle": "B-bishop",
        "type": "Voice / ASMR",
        "tags": [
            "Binaural ASMR",
            "Tentacle"
        ],
        "files": [
            "https://gitlab.com/d0g/radio/-/raw/master/tentacle/10/1.mp3",
            "https://gitlab.com/d0g/radio/-/raw/master/tentacle/10/2.mp3",
            "https://gitlab.com/d0g/radio/-/raw/master/tentacle/10/3.mp3",
            "https://gitlab.com/d0g/radio/-/raw/master/tentacle/10/4.mp3"
        ],
        "poster": "https://radio.merahputih.moe/tentacle/10/RJ287712_img_main.webp"
    },
    {
        "title": "Eaten by the Tentacle Girl",
        "language": "🇯🇵",
        "rating": "⭐⭐⭐⭐⭐",
        "circle": "Delphinapterus leucas",
        "type": "Voice / ASMR",
        "tags": [
            "Binaural ASMR",
            "Tentacle"
        ],
        "files": [
            "https://gitlab.com/d0g/radio/-/raw/master/tentacle/11/1.mp3",
            "https://gitlab.com/d0g/radio/-/raw/master/tentacle/11/2.mp3",
            "https://gitlab.com/d0g/radio/-/raw/master/tentacle/11/3.mp3",
            "https://gitlab.com/d0g/radio/-/raw/master/tentacle/11/4.mp3"
        ],
        "poster": "https://radio.merahputih.moe/tentacle/11/RJ319812_img_main.webp"
    },
    {
        "title": "The transformation heroine of righteousness who goes crazy with the fetish pleasure of close-fitting jellyfish rubber~",
        "language": "🇯🇵",
        "rating": "⭐⭐⭐⭐⭐",
        "circle": "kuroimiyako",
        "type": "Voice / ASMR",
        "tags": [
            "Binaural ASMR",
            "Tentacle"
        ],
        "files": [
            "https://gitlab.com/d0g/radio/-/raw/master/tentacle/12/1.mp3",
            "https://gitlab.com/d0g/radio/-/raw/master/tentacle/12/2.mp3",
            "https://gitlab.com/d0g/radio/-/raw/master/tentacle/12/3.mp3"
        ],
        "poster": "https://radio.merahputih.moe/tentacle/12/RJ326174_img_main.webp"
    },
    {
        "title": "Demon Exorcist Shinobu",
        "language": "🇯🇵",
        "rating": "⭐⭐⭐⭐⭐",
        "circle": "maximumspec",
        "type": "Voice / ASMR",
        "tags": [
            "Binaural ASMR",
            "Tentacle"
        ],
        "files": [
            "https://gitlab.com/d0g/radio/-/raw/master/tentacle/13/1.mp3",
            "https://gitlab.com/d0g/radio/-/raw/master/tentacle/13/2.mp3",
            "https://gitlab.com/d0g/radio/-/raw/master/tentacle/13/3.mp3",
            "https://gitlab.com/d0g/radio/-/raw/master/tentacle/13/4.mp3",
            "https://gitlab.com/d0g/radio/-/raw/master/tentacle/13/5.mp3"
        ],
        "poster": "https://radio.merahputih.moe/tentacle/13/RJ329021_img_main.webp"
    },
    {
        "title": "Forced copulation activity loved by Scylla",
        "language": "🇯🇵",
        "rating": "⭐⭐⭐⭐⭐",
        "circle": "Uebunri",
        "type": "Voice / ASMR",
        "tags": [
            "Binaural ASMR",
            "Tentacle"
        ],
        "files": [
            "https://gitlab.com/d0g/radio/-/raw/master/tentacle/14/1.mp3",
            "https://gitlab.com/d0g/radio/-/raw/master/tentacle/14/2.mp3",
            "https://gitlab.com/d0g/radio/-/raw/master/tentacle/14/3.mp3"
        ],
        "poster": "https://radio.merahputih.moe/tentacle/14/RJ374304_img_main.webp"
    },
    {
        "title": "forced female hypnosis & climax hell as a female",
        "language": "🇯🇵",
        "rating": "⭐⭐⭐⭐⭐",
        "circle": "kusinsai",
        "type": "Voice / ASMR",
        "tags": [
            "Binaural ASMR",
            "Tentacle"
        ],
        "files": [
            "https://gitlab.com/d0g/radio/-/raw/master/tentacle/15/1.mp3",
            "https://gitlab.com/d0g/radio/-/raw/master/tentacle/15/2.mp3",
            "https://gitlab.com/d0g/radio/-/raw/master/tentacle/15/3.mp3"
        ],
        "poster": "https://radio.merahputih.moe/tentacle/15/RJ398465_img_main.webp"
    },
    {
        "title": "Girl exorcist who is immersed in tentacles and fallen into lustful hell",
        "language": "🇯🇵",
        "rating": "⭐⭐⭐⭐⭐",
        "circle": "Faunas",
        "type": "Voice / ASMR",
        "tags": [
            "Binaural ASMR",
            "Tentacle"
        ],
        "files": [
            "https://gitlab.com/d0g/radio/-/raw/master/tentacle/16/1.mp3",
            "https://gitlab.com/d0g/radio/-/raw/master/tentacle/16/2.mp3",
            "https://gitlab.com/d0g/radio/-/raw/master/tentacle/16/3.mp3",
            "https://gitlab.com/d0g/radio/-/raw/master/tentacle/16/4.mp3"
        ],
        "poster": "https://radio.merahputih.moe/tentacle/16/RJ398603_img_main.webp"
    },
    {
        "title": "Really you are all the yandere juniors, close-up restraint deep love sex that sinks into darkness",
        "language": "🇯🇵",
        "rating": "⭐⭐⭐⭐⭐",
        "circle": "Large Snowflakes on G String",
        "type": "Voice / ASMR",
        "tags": [
            "Binaural ASMR",
            "Tentacle"
        ],
        "files": [
            "https://gitlab.com/d0g/radio/-/raw/master/tentacle/17/1.mp3",
            "https://gitlab.com/d0g/radio/-/raw/master/tentacle/17/2.mp3",
            "https://gitlab.com/d0g/radio/-/raw/master/tentacle/17/3.mp3",
            "https://gitlab.com/d0g/radio/-/raw/master/tentacle/17/4.mp3",
            "https://gitlab.com/d0g/radio/-/raw/master/tentacle/17/5.mp3",
            "https://gitlab.com/d0g/radio/-/raw/master/tentacle/17/6.mp3"
        ],
        "poster": "https://radio.merahputih.moe/tentacle/17/RJ399891_img_main.webp"
    },
    {
        "title": "Miko's Mother and Sisters' Naughty Exorcism Training!-",
        "language": "🇯🇵",
        "rating": "⭐⭐⭐⭐⭐",
        "circle": "Footprint Puddle",
        "type": "Voice / ASMR",
        "tags": [
            "Binaural ASMR",
            "Tentacle"
        ],
        "files": [
            "https://gitlab.com/d0g/radio/-/raw/master/tentacle/18/1.mp3"
        ],
        "poster": "https://radio.merahputih.moe/tentacle/18/RJ407321_img_main.webp"
    },
    {
        "title": "Transformed Heroine Defeated in Tentacle Anal Torture Hell of an Octopus Monster and Becomes a Nasty Masochist Pig~",
        "language": "🇯🇵",
        "rating": "⭐⭐⭐⭐⭐",
        "circle": "birthmark",
        "type": "Voice / ASMR",
        "tags": [
            "Binaural ASMR",
            "Tentacle"
        ],
        "files": [
            "https://gitlab.com/d0g/radio/-/raw/master/tentacle/19/1.mp3"
        ],
        "poster": "https://radio.merahputih.moe/tentacle/19/RJ424496_img_main.webp"
    },
    {
        "title": "Maria's Pleasure Tuning Hypnosis - You Are My Plaything",
        "language": "🇯🇵",
        "rating": "⭐⭐⭐⭐⭐",
        "circle": "Furo Ido Soft",
        "type": "Voice / ASMR",
        "tags": [
            "Binaural ASMR",
            "Tentacle"
        ],
        "files": [
            "https://gitlab.com/d0g/radio/-/raw/master/tentacle/2/1.mp3",
            "https://gitlab.com/d0g/radio/-/raw/master/tentacle/2/2.mp3",
            "https://gitlab.com/d0g/radio/-/raw/master/tentacle/2/3.mp3",
            "https://gitlab.com/d0g/radio/-/raw/master/tentacle/2/4.mp3",
            "https://gitlab.com/d0g/radio/-/raw/master/tentacle/2/5.mp3",
            "https://gitlab.com/d0g/radio/-/raw/master/tentacle/2/6.mp3",
            "https://gitlab.com/d0g/radio/-/raw/master/tentacle/2/7.mp3"
        ],
        "poster": "https://radio.merahputih.moe/tentacle/2/RJ101925_img_main.webp"
    },
    {
        "title": "Aphrodisiac Secretion Tentacles Make Your Brain Cum Super Massive Ejaculation!",
        "language": "🇯🇵",
        "rating": "⭐⭐⭐⭐⭐",
        "circle": "Fleming",
        "type": "Voice / ASMR",
        "tags": [
            "Binaural ASMR",
            "Tentacle"
        ],
        "files": [
            "https://gitlab.com/d0g/radio/-/raw/master/tentacle/20/1.mp3",
            "https://gitlab.com/d0g/radio/-/raw/master/tentacle/20/2.mp3",
            "https://gitlab.com/d0g/radio/-/raw/master/tentacle/20/3.mp3",
            "https://gitlab.com/d0g/radio/-/raw/master/tentacle/20/4.mp3"
        ],
        "poster": "https://radio.merahputih.moe/tentacle/20/RJ429846_img_main.webp"
    },
    {
        "title": "A Neat And Gentle Senior Was A Nasty Futanari Heroine Who Raised Ahe And Whooped Up",
        "language": "🇯🇵",
        "rating": "⭐⭐⭐⭐⭐",
        "circle": "Megagigaerosu burst",
        "type": "Voice / ASMR",
        "tags": [
            "Binaural ASMR",
            "Tentacle"
        ],
        "files": [
            "https://gitlab.com/d0g/radio/-/raw/master/tentacle/21/1.mp3",
            "https://gitlab.com/d0g/radio/-/raw/master/tentacle/21/2.mp3"
        ],
        "poster": "https://radio.merahputih.moe/tentacle/21/RJ431185_img_main.webp"
    },
    {
        "title": "For masochists/prostate/anal torture",
        "language": "🇯🇵",
        "rating": "⭐⭐⭐⭐⭐",
        "circle": "Club Haniwari",
        "type": "Voice / ASMR",
        "tags": [
            "Binaural ASMR",
            "Tentacle"
        ],
        "files": [
            "https://gitlab.com/d0g/radio/-/raw/master/tentacle/22/1.mp3",
            "https://gitlab.com/d0g/radio/-/raw/master/tentacle/22/2.mp3",
            "https://gitlab.com/d0g/radio/-/raw/master/tentacle/22/3.mp3",
            "https://gitlab.com/d0g/radio/-/raw/master/tentacle/22/4.mp3",
            "https://gitlab.com/d0g/radio/-/raw/master/tentacle/22/5.mp3"
        ],
        "poster": "https://radio.merahputih.moe/tentacle/22/RJ433644_img_main.webp"
    },
    {
        "title": "A dream where you get squid more than 10 times with Imma-style ear torture",
        "language": "🇯🇵",
        "rating": "⭐⭐⭐⭐⭐",
        "circle": "ristorante",
        "type": "Voice / ASMR",
        "tags": [
            "Binaural ASMR",
            "Tentacle"
        ],
        "files": [
            "https://gitlab.com/d0g/radio/-/raw/master/tentacle/23/1.mp3",
            "https://gitlab.com/d0g/radio/-/raw/master/tentacle/23/2.mp3",
            "https://gitlab.com/d0g/radio/-/raw/master/tentacle/23/3.mp3",
            "https://gitlab.com/d0g/radio/-/raw/master/tentacle/23/4.mp3"
        ],
        "poster": "https://radio.merahputih.moe/tentacle/23/RJ434336_img_main.webp"
    },
    {
        "title": "Absolute Justice Heroine 'Iris of the Holy Light' Torture and Fallen ~I won't give in to any kind of pleasure until I return to my master...!",
        "language": "🇯🇵",
        "rating": "⭐⭐⭐⭐⭐",
        "circle": "生ハメ堕ち部★LACK",
        "type": "Voice / ASMR",
        "tags": [
            "Binaural ASMR",
            "Tentacle"
        ],
        "files": [
            "https://gitlab.com/d0g/radio/-/raw/master/tentacle/24/1.mp3",
            "https://gitlab.com/d0g/radio/-/raw/master/tentacle/24/2.mp3",
            "https://gitlab.com/d0g/radio/-/raw/master/tentacle/24/3.mp3",
            "https://gitlab.com/d0g/radio/-/raw/master/tentacle/24/4.mp3"
        ],
        "poster": "https://radio.merahputih.moe/tentacle/24/RJ01029765_img_main.webp"
    },
    {
        "title": "Evil Fallen Magical Girl ~A magical girl with a lewd crest captured you, your childhood friend, and became a horny tentacle monster who forced her distorted love and her own libido into her sperm",
        "language": "🇯🇵",
        "rating": "⭐⭐⭐⭐⭐",
        "circle": "Mad venus",
        "type": "Voice / ASMR",
        "tags": [
            "Binaural ASMR",
            "Tentacle"
        ],
        "files": [
            "https://gitlab.com/d0g/radio/-/raw/master/tentacle/25/1.mp3",
            "https://gitlab.com/d0g/radio/-/raw/master/tentacle/25/2.mp3",
            "https://gitlab.com/d0g/radio/-/raw/master/tentacle/25/3.mp3"
        ],
        "poster": "https://radio.merahputih.moe/tentacle/25/RJ01053029_img_main.webp"
    },
    {
        "title": "Desire Strong Big Cock Futanari Elf and Baby Making Raw Fuck Reverse Anal",
        "language": "🇯🇵",
        "rating": "⭐⭐⭐⭐⭐",
        "circle": "Club Haniwari",
        "type": "Voice / ASMR",
        "tags": [
            "Binaural ASMR",
            "Tentacle"
        ],
        "files": [
            "https://gitlab.com/d0g/radio/-/raw/master/tentacle/26/1.mp3",
            "https://gitlab.com/d0g/radio/-/raw/master/tentacle/26/2.mp3",
            "https://gitlab.com/d0g/radio/-/raw/master/tentacle/26/3.mp3"
        ],
        "poster": "https://radio.merahputih.moe/tentacle/26/RJ01077528_img_main.webp"
    },
    {
        "title": "A baptism of reproductive behavior for a princess who marries a tentacle",
        "language": "🇯🇵",
        "rating": "⭐⭐⭐⭐⭐",
        "circle": "玲の部屋",
        "type": "Voice / ASMR",
        "tags": [
            "Binaural ASMR",
            "Tentacle"
        ],
        "files": [
            "https://gitlab.com/d0g/radio/-/raw/master/tentacle/27/1.mp3"
        ],
        "poster": "https://radio.merahputih.moe/tentacle/27/RJ01065738_img_main.webp"
    },
    {
        "title": "Seedbed Tentacle User and Boy《Hypnotic Voice》",
        "language": "🇯🇵",
        "rating": "⭐⭐⭐⭐⭐",
        "circle": "Hypnotic_Yanh",
        "type": "Voice / ASMR",
        "tags": [
            "Binaural ASMR",
            "Tentacle"
        ],
        "files": [
            "https://gitlab.com/d0g/radio/-/raw/master/tentacle/3/1.mp3"
        ],
        "poster": "https://radio.merahputih.moe/tentacle/3/RJ01061419_img_main.webp"
    },
    {
        "title": "A succubus turns your ears into erogenous zones for total violation~",
        "language": "🇯🇵",
        "rating": "⭐⭐⭐⭐⭐",
        "circle": "ristorante",
        "type": "Voice / ASMR",
        "tags": [
            "Binaural ASMR",
            "Tentacle"
        ],
        "files": [
            "https://gitlab.com/d0g/radio/-/raw/master/tentacle/4/1.mp3",
            "https://gitlab.com/d0g/radio/-/raw/master/tentacle/4/2.mp3",
            "https://gitlab.com/d0g/radio/-/raw/master/tentacle/4/3.mp3",
            "https://gitlab.com/d0g/radio/-/raw/master/tentacle/4/4.mp3"
        ],
        "poster": "https://radio.merahputih.moe/tentacle/4/RJ197033_img_main.webp"
    },
    {
        "title": "A succubus turns your ears into erogenous zones for brain inspection~",
        "language": "🇯🇵",
        "rating": "⭐⭐⭐⭐⭐",
        "circle": "ristorante",
        "type": "Voice / ASMR",
        "tags": [
            "Binaural ASMR",
            "Tentacle"
        ],
        "files": [
            "https://gitlab.com/d0g/radio/-/raw/master/tentacle/5/1.mp3",
            "https://gitlab.com/d0g/radio/-/raw/master/tentacle/5/2.mp3",
            "https://gitlab.com/d0g/radio/-/raw/master/tentacle/5/3.mp3",
            "https://gitlab.com/d0g/radio/-/raw/master/tentacle/5/4.mp3"
        ],
        "poster": "https://radio.merahputih.moe/tentacle/5/RJ215288_img_main.webp"
    },
    {
        "title": "Alraune's Kuchu-Kuchu Brain Modification ~ Be My Breeding Partner",
        "language": "🇯🇵",
        "rating": "⭐⭐⭐⭐⭐",
        "circle": "Kitsuneya Honpo",
        "type": "Voice / ASMR",
        "tags": [
            "Binaural ASMR",
            "Tentacle"
        ],
        "files": [
            "https://gitlab.com/d0g/radio/-/raw/master/tentacle/6/1.mp3",
            "https://gitlab.com/d0g/radio/-/raw/master/tentacle/6/2.mp3",
            "https://gitlab.com/d0g/radio/-/raw/master/tentacle/6/3.mp3"
        ],
        "poster": "https://radio.merahputih.moe/tentacle/6/RJ249688_img_main.webp"
    },
    {
        "title": "Welcome to La Mel's Room ~Endless Tentacle Orgasm Loop~",
        "language": "🇯🇵",
        "rating": "⭐⭐⭐⭐⭐",
        "circle": "TS heaven",
        "type": "Voice / ASMR",
        "tags": [
            "Binaural ASMR",
            "Tentacle"
        ],
        "files": [
            "https://gitlab.com/d0g/radio/-/raw/master/tentacle/7/1.mp3",
            "https://gitlab.com/d0g/radio/-/raw/master/tentacle/7/2.mp3",
            "https://gitlab.com/d0g/radio/-/raw/master/tentacle/7/3.mp3"
        ],
        "poster": "https://radio.merahputih.moe/tentacle/7/RJ256403_img_main.webp"
    },
    {
        "title": "[Gender Bending Enslavement and Forced Repeat Orgasm Hypnosis] 2019 Sex Change Journey",
        "language": "🇯🇵",
        "rating": "⭐⭐⭐⭐⭐",
        "circle": "OKASHINOMIMIOKA",
        "type": "Voice / ASMR",
        "tags": [
            "Binaural ASMR",
            "Tentacle"
        ],
        "files": [
            "https://gitlab.com/d0g/radio/-/raw/master/tentacle/8/1.mp3",
            "https://gitlab.com/d0g/radio/-/raw/master/tentacle/8/2.mp3",
            "https://gitlab.com/d0g/radio/-/raw/master/tentacle/8/3.mp3"
        ],
        "poster": "https://radio.merahputih.moe/tentacle/8/RJ265936_img_main.webp"
    },
    {
        "title": "Succubus World ~Ear-Teasing Tentacle Hell~",
        "language": "🇯🇵",
        "rating": "⭐⭐⭐⭐⭐",
        "circle": "ristorante",
        "type": "Voice / ASMR",
        "tags": [
            "Binaural ASMR",
            "Tentacle"
        ],
        "files": [
            "https://gitlab.com/d0g/radio/-/raw/master/tentacle/9/1.mp3",
            "https://gitlab.com/d0g/radio/-/raw/master/tentacle/9/2.mp3",
            "https://gitlab.com/d0g/radio/-/raw/master/tentacle/9/3.mp3"
        ],
        "poster": "https://radio.merahputih.moe/tentacle/9/RJ269909_img_main.webp"
    }
]