{
    "title": "The chairman of the cool committee wants to be corrupted by a lewd Onaho pussy [Aheiki, Oho voice, mask fellatio",
    "language": "🇯🇵",
    "rating": "⭐⭐⭐⭐⭐",
    "circle": "studioM.B.",
    "type": "Voice / ASMR",
    "tags": ["Netorare / Cuckoldry"]
}