{
    "title": "Over engineering Double Succubus and Angel ASMR Endless Sex♪♪",
    "language": "🇯🇵",
    "rating": "⭐⭐⭐⭐⭐",
    "circle": "Midori Horokusa",
    "type": "Voice / ASMR",
    "tags": ["Binaural", "Angel / Demon", "Maid", "Internal Cumshot", "Violation", "Big Breasts", "Phimosis"]
}