{
    "title": "Breastfeeding specialization: Mansion maid Hanami's breast milk tits while being euphoric flirting raw sex ♪♪",
    "language": "🇯🇵",
    "rating": "⭐⭐⭐⭐⭐",
    "circle": "DLfapfap.com production crew",
    "type": "Voice / ASMR",
    "tags": ["Healing", "Breasts", "ASMR Maid", "Internal Cumshot"]
}