{
    "title": "Rude and noisy, but I love my adopted boy",
    "language": "🇯🇵",
    "rating": "⭐⭐⭐⭐⭐",
    "circle": "CRAVEALL",
    "type": "Voice / ASMR",
    "tags": ["Breasts", "Binaural", "Lovey Dovey / Sweet Love", "Internal Cumshot", "Breast Sex", "Big Breasts", "Voluptuous / Plump"]
}