{
    "title": "Superlative masturbation provocation with the close breath of the succubus queen ♪",
    "language": "🇯🇵",
    "rating": "⭐⭐⭐⭐⭐",
    "circle": "tokitama",
    "type": "Voice / ASMR",
    "tags": ["No Reverse", "Coquettish / Seduction", "Masturbation", "Guided Masturbation", "Blowjob / Fellatio", "Tease", "Ear Licking"]
}