{
    "title": "Sleeping together: I'll heal you and your sister who are doing their best",
    "language": "🇯🇵",
    "rating": "⭐⭐⭐⭐⭐",
    "circle": "m3t",
    "type": "Voice / ASMR",
    "tags": ["Binaural ASMR", "Bunny Girl"]
}