{
    "title": "She's a tsundere cat type, she's shy~Hurry up and hug me!",
    "language": "🇯🇵",
    "rating": "⭐⭐⭐⭐⭐",
    "circle": "mizushirolabyrinth",
    "type": "Voice / ASMR",
    "tags": ["Binaural ASMR", "Whispering", "Tease", "Tsundere"]
}