{
    "title": "Single cool maid in her thirties wanted to conceive my heir, so she got raped exclusively during her ovulation period?",
    "language": "🇯🇵",
    "rating": "⭐⭐⭐⭐⭐",
    "circle": "Inn of Yukikafu",
    "type": "Voice / ASMR",
    "tags": ["Binaural", "Maid", "Internal Cumshot", "Reverse Rape", "Submissive Man", "Ear Licking", "Big Breasts"]
}