{
    "title": "Eaten by the Tentacle Girl",
    "language": "🇯🇵",
    "rating": "⭐⭐⭐⭐⭐",
    "circle": "Delphinapterus leucas",
    "type": "Voice / ASMR",
    "tags": ["Binaural ASMR", "Tentacle"]
}