{
    "title": "Adored girlfriend at Happening Bar is NTR swapping's first sex!?",
    "language": "🇯🇵",
    "rating": "⭐⭐⭐⭐⭐",
    "circle": "Halftone dots",
    "type": "Voice / ASMR",
    "tags": ["Binaural ASMR", "Whispering", "Tease", "Tsundere"]
}